<?xml version="1.0" encoding="UTF-8" standalone="no"?>
<svg xmlns="http://www.w3.org/2000/svg" xmlns:xlink="http://www.w3.org/1999/xlink" version="1.1" width="303.839985pt" height="303.839985pt" viewBox="0 0 303.839985 303.839985">
<title>Untitled Project - Component A</title>
<g>
<path d="M151.919992 115.919992 L155.914094 121.58178 L161.237478 117.146663 L163.630105 123.649279 L169.919992 120.743078 L170.548092 127.64338 L177.375837 126.464148 L176.196605 133.291893 L183.096907 133.919992 L180.190706 140.209879 L186.693322 142.602507 L182.258205 147.925891 L187.919992 151.919992 L182.258205 155.914094 L186.693322 161.237478 L180.190706 163.630105 L183.096907 169.919992 L176.196605 170.548092 L177.375837 177.375837 L170.548092 176.196605 L169.919992 183.096907 L163.630105 180.190706 L161.237478 186.693322 L155.914094 182.258205 L151.919992 187.919992 L147.925891 182.258205 L142.602507 186.693322 L140.209879 180.190706 L133.919992 183.096907 L133.291893 176.196605 L126.464148 177.375837 L127.64338 170.548092 L120.743078 169.919992 L123.649279 163.630105 L117.146663 161.237478 L121.58178 155.914094 L115.919992 151.919992 L121.58178 147.925891 L117.146663 142.602507 L123.649279 140.209879 L120.743078 133.919992 L127.64338 133.291893 L126.464148 126.464148 L133.291893 127.64338 L133.919992 120.743078 L140.209879 123.649279 L142.602507 117.146663 L147.925891 121.58178 L151.919992 115.919992 Z " fill="none" stroke="#000000" stroke-width="0.72" />
<g>
<path d="M120.743078 53.999991 L151.919992 0 L183.096906 53.999991 L151.919992 107.999991 L120.743078 53.999991 Z " fill="none" stroke="#000000" stroke-width="0.72" />
<path d="M199.114482 60.634688 L259.343649 44.496336 L243.205296 104.725503 L182.976123 120.863862 L199.114482 60.634688 Z " fill="none" stroke="#000000" stroke-width="0.72" />
<path d="M249.839993 120.743078 L303.839985 151.919992 L249.839993 183.096906 L195.839993 151.919992 L249.839993 120.743078 Z " fill="none" stroke="#000000" stroke-width="0.72" />
<path d="M243.205296 199.114482 L259.343649 259.343649 L199.114482 243.205296 L182.976123 182.976123 L243.205296 199.114482 Z " fill="none" stroke="#000000" stroke-width="0.72" />
<path d="M183.096906 249.839993 L151.919992 303.839985 L120.743078 249.839993 L151.919992 195.839993 L183.096906 249.839993 Z " fill="none" stroke="#000000" stroke-width="0.72" />
<path d="M104.725503 243.205296 L44.496336 259.343649 L60.634688 199.114482 L120.863862 182.976123 L104.725503 243.205296 Z " fill="none" stroke="#000000" stroke-width="0.72" />
<path d="M53.999991 183.096906 L0 151.919992 L53.999991 120.743078 L107.999991 151.919992 L53.999991 183.096906 Z " fill="none" stroke="#000000" stroke-width="0.72" />
<path d="M60.634688 104.725503 L44.496336 44.496336 L104.725503 60.634688 L120.863862 120.863862 L60.634688 104.725503 Z " fill="none" stroke="#000000" stroke-width="0.72" />
</g>
<path d="M117.482338 0.983654 L79.59024 16.674336 L73.829241 19.059897 L111.310284 47.826465 L117.482338 0.983654 Z M234.297009 20.840781 L196.408257 5.142014 L190.647769 2.755217 L196.809829 49.599349 L234.297009 20.840781 Z M88.105845 20.940997 L105.801061 34.522013 L108.714952 12.406998 L88.105845 20.940997 Z M199.412713 14.18044 L202.321893 36.296073 L220.019996 22.718834 L199.412713 14.18044 Z M20.840781 69.542976 L5.142014 107.431728 L2.755217 113.192216 L49.599349 107.030156 L20.840781 69.542976 Z M302.856331 117.482338 L287.165648 79.59024 L284.780087 73.829241 L256.01352 111.310284 L302.856331 117.482338 Z M14.18044 104.427272 L22.718834 83.819989 L36.296073 101.518092 L14.18044 104.427272 Z M282.898988 88.105845 L269.317972 105.801061 L291.432987 108.714952 L282.898988 88.105845 Z M0.983654 186.357646 L16.674336 224.249745 L19.059897 230.010744 L47.826465 192.529701 L0.983654 186.357646 Z M20.940997 215.734139 L34.522013 198.038924 L12.406998 195.125032 L20.940997 215.734139 Z M282.999204 234.297009 L298.697971 196.408257 L301.084768 190.647769 L254.240636 196.809829 L282.999204 234.297009 Z M289.659545 199.412713 L281.121151 220.019996 L267.543912 202.321893 L289.659545 199.412713 Z M69.542976 282.999204 L107.431728 298.697971 L113.192216 301.084768 L107.030156 254.240636 L69.542976 282.999204 Z M186.357646 302.856331 L224.249745 287.165648 L230.010744 284.780087 L192.529701 256.01352 L186.357646 302.856331 Z M104.427272 289.659545 L83.819989 281.121151 L101.518092 267.543912 L104.427272 289.659545 Z M215.734139 282.898988 L198.038924 269.317972 L195.125032 291.432987 L215.734139 282.898988 Z " fill="none" stroke="#000000" stroke-width="0.72" />
</g>
</svg>
<!--
Generator: Cuttle.xyz
-->